{
  "minecraft:recipes/transportation/acacia_boat": {
    "criteria": {
      "in_water": "2021-09-17 00:57:50 +0200"
    },
    "done": true
  },
  "minecraft:recipes/transportation/oak_boat": {
    "criteria": {
      "in_water": "2021-09-17 00:57:50 +0200"
    },
    "done": true
  },
  "minecraft:recipes/transportation/dark_oak_boat": {
    "criteria": {
      "in_water": "2021-09-17 00:57:50 +0200"
    },
    "done": true
  },
  "minecraft:recipes/transportation/birch_boat": {
    "criteria": {
      "in_water": "2021-09-17 00:57:50 +0200"
    },
    "done": true
  },
  "minecraft:recipes/transportation/jungle_boat": {
    "criteria": {
      "in_water": "2021-09-17 00:57:50 +0200"
    },
    "done": true
  },
  "minecraft:recipes/transportation/spruce_boat": {
    "criteria": {
      "in_water": "2021-09-17 00:57:50 +0200"
    },
    "done": true
  },
  "minecraft:adventure/adventuring_time": {
    "criteria": {
      "minecraft:forest": "2021-09-17 00:58:00 +0200",
      "minecraft:birch_forest": "2021-09-17 00:56:35 +0200",
      "minecraft:dark_forest": "2021-09-17 00:59:58 +0200",
      "minecraft:river": "2021-09-17 00:58:20 +0200",
      "minecraft:wooded_hills": "2021-09-17 00:58:28 +0200",
      "minecraft:plains": "2021-09-17 00:58:03 +0200"
    },
    "done": false
  },
  "DataVersion": 2730
}